…
{Based on my results, a non-parametric test is needed.}

**Question 3** *Now you can assess correlation in each year. Use the
rcorr function from the Hmisc package to analyze the correlation of our
variables of interest in 2008 and 2016 using the Pearson or Spearman’s
test (depending on normality). Save the results of each function to an
object and then call it in your code so the correlation is visible in
this knitted lab document.*

``` r
election2008 %>% mutate_if(is.character, as.factor)
```

    ## # A tibble: 3,111 × 7
    ##    region         gop_pct ed_lesshs_pct ed_hsdiploma_pct ed_le…¹ ed_ba…² ed_gr…³
    ##    <fct>            <dbl>         <dbl>            <dbl>   <dbl>   <dbl>   <dbl>
    ##  1 Midwest Region    46.0          9.45             38.4    33.5   18.7     6.01
    ##  2 South Region      87.0         18.5              30.0    29.0   22.5     5.87
    ##  3 South Region      72.3         24.5              35.7    30.2    9.66    2.76
    ##  4 South Region      47.0         47.2              29.1    16.1    7.60    1.94
    ##  5 West Region       72.0         11.9              34.0    34.8   19.3     6.92
    ##  6 Midwest Region    66.6         13.1              38.6    31.9   16.3     3.11
    ##  7 South Region      42.3          8.42             17.5    26.6   47.4     8.82
    ##  8 South Region      45.3         14.9              26.2    30.6   28.2     5.23
    ##  9 South Region      77.4         18.5              35.6    30.3   15.6     3.24
    ## 10 South Region      77.3         27.7              36.4    23.2   12.7     3.03
    ## # … with 3,101 more rows, and abbreviated variable names ¹​ed_lessba_pct,
    ## #   ²​ed_ba_pct, ³​ed_graddeg_pct

``` r
election2016 %>% mutate_if(is.character, as.factor)
```

    ## # A tibble: 3,110 × 7
    ##    region         gop_pct ed_lesshs_pct ed_hsdiploma_pct ed_le…¹ ed_ba…² ed_gr…³
    ##    <fct>            <dbl>         <dbl>            <dbl>   <dbl>   <dbl>   <dbl>
    ##  1 Midwest Region    60.2          6.07             33.3    39.1   14.7     6.83
    ##  2 South Region      87.7         17.8              33.3    29.4   14.5     4.97
    ##  3 South Region      82.8         19.1              37.1    32.2    7.17    4.40
    ##  4 South Region      44.5         36.1              27.6    25.5    7.81    2.97
    ##  5 West Region       76.5          5.58             28.0    43.3   14.4     8.76
    ##  6 Midwest Region    77.3          9.97             36.0    34.7   14.0     5.31
    ##  7 South Region      37.9          7.26             15.4    25.5   32.6    19.3 
    ##  8 South Region      45.0         10.6              23.6    34.0   20.5    11.3 
    ##  9 South Region      83.8         14.9              33.8    33.8   13.1     4.39
    ## 10 South Region      84.0         24.5              36.3    26.4    7.82    5.03
    ## # … with 3,100 more rows, and abbreviated variable names ¹​ed_lessba_pct,
    ## #   ²​ed_ba_pct, ³​ed_graddeg_pct
…
